{
    "id": "xenophobia",
    "name": "xenophobia",
    "title": "Xenophobia",
    "description": "\"Najstarszym i najsilniejszym uczuciem znanym ludzkości jest strach, a najstarszym i\nnajsilniejszym rodzajem strachu jest strach przed nieznanym.\"\n- H.P. Lovecraft",
    "version": "0.0.1",
    "authors" : [
        {
            "name": "Ryczypior",
            "email": "ryczypior@gmail.com",
            "discord": "Ryczypior"
        }
    ],
    "esmodules" : [],
    "scripts": ["xenophobia.js"],
    "styles": ["./css/xenophobia.css"],
    "packs": [
        {
            "name": "basic",
            "label": "Basic Items",
            "system": "xenophobia",
            "path": "./packs/basic.db",
            "type": "Item"
        }
    ],
    "languages": [
        {
            "lang": "pl",
            "name": "Polski",
            "path": "lang/pl.json"
        },
        {
            "lang": "en",
            "name": "English",
            "path": "lang/en.json"
        }
    ],
    "initiative": "@attributes.mental.value + @skills.survival.skills.survival.value",
    "gridDistance": 10,
    "gridUnits": "m",
    "compatibility" : {
        "minimum" : 10.279,
        "verified" : 10,
        "maximum" : 11
    },
    "manifestPlusVersion": "1.0.0",
    "templateVersion":3,
    "socket": true,
    "manifest" :  "https://gitlab.com/ryczypior/xenophobia-for-foundryvtt/-/raw/main/system.json?ref_type=heads&inline=false",
    "download" :  "https://gitlab.com/ryczypior/xenophobia-for-foundryvtt/-/raw/main/releases/xenophobia-0.9.zip?ref_type=heads&inline=false",
    "url" : "https://gitlab.com/ryczypior/xenophobia-for-foundryvtt"
}
