{
    "Actor": {
        "types": [
            "Character",
            "NPC",
            "Monster"
        ],
        "templates": {
            "info": {
                "info": {
                    "player": {
                        "label": "SHEET.Player",
                        "value": ""
                    },
                    "membership": {
                        "label": "SHEET.Membership",
                        "value": ""
                    },
                    "graderank": {
                        "label": "SHEET.GradeRank",
                        "value": ""
                    },
                    "department": {
                        "label": "SHEET.Department",
                        "value": ""
                    }
                }
            },
            "status": {
                "status": {
                    "hp": {
                        "label": "SHEET.HP",
                        "initial": 0,
                        "value": 0,
                        "modifier": 0
                    },
                    "wp": {
                        "label": "SHEET.WP",
                        "initial": 0,
                        "value": 0,
                        "modifier": 0
                    },
                    "armor": {
                        "label": "SHEET.Armor",
                        "initial": 0,
                        "value": 0,
                        "modifier": 0
                    },
                    "fear": {
                        "label": "SHEET.Fear",
                        "initial": 0,
                        "value": 0,
                        "modifier": 0
                    }
                }
            },
            "attributes": {
                "attributes": {}
            },
            "skills": {
                "skills": {}
            }
        },
        "Character": {
            "templates": [
                "info",
                "status"
            ]
        },
        "NPC": {
            "templates": [
                "info",
                "status",
                "attributes",
                "skills"
            ]
        },
        "Monster": {
            "templates": [
                "info",
                "status",
                "attributes",
                "skills"
            ]
        }
    },
    "Item": {
        "types": [
            "Perks",
            "Houses",
            "Powers",
            "Equipment",
            "Weapons"
        ],
        "templates": {
            "details": {
                "details": {
                    "description": {
                        "label": "ITEM.Sheet.Description",
                        "value": ""
                    },
                    "gmdescription": {
                        "label": "ITEM.Sheet.GMDescription",
                        "value": ""
                    }
                }
            }
        },
        "Perks": {
            "templates": [
                "details"
            ]
        },
        "Houses": {
            "templates": [
                "details"
            ]
        },
        "Powers": {
            "templates": [
                "details"
            ]
        },
        "Equipment": {
            "templates": [
                "details"
            ]
        },
        "Weapons": {
            "templates": [
                "details"
            ]
        }
    }
}
